<?xml version="1.0" encoding="UTF-8" standalone="no"?>
<!-- Created with Inkscape (http://www.inkscape.org/) -->

<svg
   xmlns:dc="http://purl.org/dc/elements/1.1/"
   xmlns:cc="http://creativecommons.org/ns#"
   xmlns:rdf="http://www.w3.org/1999/02/22-rdf-syntax-ns#"
   xmlns:svg="http://www.w3.org/2000/svg"
   xmlns="http://www.w3.org/2000/svg"
   xmlns:sodipodi="http://sodipodi.sourceforge.net/DTD/sodipodi-0.dtd"
   xmlns:inkscape="http://www.inkscape.org/namespaces/inkscape"
   width="10cm"
   height="5cm"
   viewBox="0 0 354.33071 177.16533"
   id="svg2"
   version="1.1"
   inkscape:version="0.91 r13725"
   sodipodi:docname="config_thunderbirdnouveaucompte.svg"
   inkscape:export-filename="/media/h4ck3r/GrosDisque/Fichiersdetravail/Projets_Libres/LIVRESENCOURS/manueldumo/images/config_thunderbirdnouveaucompteNEW.png"
   inkscape:export-xdpi="300"
   inkscape:export-ydpi="300">
  <defs
     id="defs4" />
  <sodipodi:namedview
     id="base"
     pagecolor="#ffffff"
     bordercolor="#666666"
     borderopacity="1.0"
     inkscape:pageopacity="0.0"
     inkscape:pageshadow="2"
     inkscape:zoom="1.979899"
     inkscape:cx="219.19048"
     inkscape:cy="54.540313"
     inkscape:document-units="px"
     inkscape:current-layer="layer1"
     showgrid="false"
     units="cm"
     inkscape:window-width="1920"
     inkscape:window-height="1029"
     inkscape:window-x="0"
     inkscape:window-y="0"
     inkscape:window-maximized="1"
     fit-margin-top="0.1"
     fit-margin-left="0.1"
     fit-margin-bottom="0.1"
     fit-margin-right="0.1"
     borderlayer="true" />
  <metadata
     id="metadata7">
    <rdf:RDF>
      <cc:Work
         rdf:about="">
        <dc:format>image/svg+xml</dc:format>
        <dc:type
           rdf:resource="http://purl.org/dc/dcmitype/StillImage" />
        <dc:title />
      </cc:Work>
    </rdf:RDF>
  </metadata>
  <g
     inkscape:label="Calque 1"
     inkscape:groupmode="layer"
     id="layer1"
     transform="translate(-2.3897126,-875.47312)">
    <rect
       style="opacity:1;fill:#ffffff;fill-opacity:1;stroke:none;stroke-width:1.5;stroke-linejoin:round;stroke-miterlimit:4;stroke-dasharray:none;stroke-dashoffset:0;stroke-opacity:1"
       id="rect4190"
       width="380.71429"
       height="222.14285"
       x="-10.46743"
       y="864.78131" />
    <rect
       style="opacity:1;fill:#ffffff;fill-opacity:1;stroke:#000000;stroke-width:1.10358703;stroke-linejoin:round;stroke-miterlimit:4;stroke-dasharray:none;stroke-dashoffset:0;stroke-opacity:1"
       id="rect4136"
       width="349.05142"
       height="158.4895"
       x="5.3161864"
       y="886.33612"
       ry="8.3415537" />
    <g
       id="g4189"
       transform="matrix(0.50209234,-0.51084925,0.51379304,0.4992156,159.11694,759.47995)">
      <path
         id="rect4148-3"
         d="m 37.079917,306.64048 c -0.95342,0 -1.72193,0.76699 -1.72193,1.72041 l 0,4.42652 -4.37632,0 c -0.95343,0 -1.72042,0.76699 -1.72042,1.72041 0,0.95342 0.76699,1.72041 1.72042,1.72041 l 4.37632,0 0,4.62275 c 0,0.95341 0.76851,1.72041 1.72193,1.72041 0.95341,0 1.72041,-0.767 1.72041,-1.72041 l 0,-4.62275 4.67142,0 c 0.95342,0 1.72041,-0.76699 1.72041,-1.72041 0,-0.95342 -0.76699,-1.72041 -1.72041,-1.72041 l -4.67142,0 0,-4.42652 c 0,-0.95342 -0.767,-1.72041 -1.72041,-1.72041 z"
         style="opacity:1;fill:#000000;fill-opacity:1;stroke:none;stroke-width:3.54330707;stroke-linejoin:round;stroke-miterlimit:4;stroke-dasharray:none;stroke-dashoffset:0;stroke-opacity:1"
         inkscape:connector-curvature="0" />
      <flowRoot
         xml:space="preserve"
         id="flowRoot4194"
         style="font-style:normal;font-weight:normal;font-size:40px;line-height:125%;font-family:sans-serif;letter-spacing:0px;word-spacing:0px;fill:#000000;fill-opacity:1;stroke:none;stroke-width:1px;stroke-linecap:butt;stroke-linejoin:miter;stroke-opacity:1"
         transform="matrix(0.69891616,0.71520361,-0.71520361,0.69891616,118.99393,338.67144)"><flowRegion
           id="flowRegion4196"><rect
             id="rect4198"
             width="145.46196"
             height="150.00766"
             x="43.941635"
             y="98.140587" /></flowRegion><flowPara
           id="flowPara4200" /></flowRoot>      <text
         xml:space="preserve"
         style="font-style:normal;font-weight:normal;font-size:40px;line-height:125%;font-family:sans-serif;letter-spacing:0px;word-spacing:0px;fill:#000000;fill-opacity:1;stroke:none;stroke-width:1px;stroke-linecap:butt;stroke-linejoin:miter;stroke-opacity:1"
         x="252.14975"
         y="141.14725"
         id="text4218"
         sodipodi:linespacing="125%"
         transform="matrix(0.69891616,0.71520361,-0.71520361,0.69891616,0,0)"><tspan
           sodipodi:role="line"
           id="tspan4220"
           x="252.14975"
           y="141.14725" /></text>
    </g>
    <text
       xml:space="preserve"
       style="font-style:normal;font-weight:normal;font-size:9.1354351px;line-height:125%;font-family:sans-serif;letter-spacing:0px;word-spacing:0px;fill:#000000;fill-opacity:1;stroke:none;stroke-width:1px;stroke-linecap:butt;stroke-linejoin:miter;stroke-opacity:1"
       x="120.71896"
       y="896.39886"
       id="text4620"
       sodipodi:linespacing="125%"><tspan
         sodipodi:role="line"
         id="tspan4622"
         x="120.71896"
         y="896.39886"
         style="font-style:italic;font-variant:normal;font-weight:normal;font-stretch:normal;font-family:sans-serif;-inkscape-font-specification:'sans-serif Italic'">Création d'un compte courrier</tspan></text>
    <flowRoot
       xml:space="preserve"
       id="flowRoot4206"
       style="font-style:normal;font-weight:normal;font-size:31.5931015px;line-height:125%;font-family:sans-serif;letter-spacing:0px;word-spacing:0px;fill:#000000;fill-opacity:1;stroke:none;stroke-width:1px;stroke-linecap:butt;stroke-linejoin:miter;stroke-opacity:1"
       transform="translate(7.3236059,1.2626907)"><flowRegion
         id="flowRegion4208"><rect
           id="rect4210"
           width="268.07635"
           height="144.8091"
           x="10.968762"
           y="908.27972" /></flowRegion><flowPara
         id="flowPara4212"
         style="font-size:7.89827538px;line-height:179.99999523%;text-align:start;text-anchor:start">  Vos nom et prénom :      Jean Dupont</flowPara><flowPara
         style="font-size:7.89827538px;line-height:179.99999523%;text-align:start;text-anchor:start"
         id="flowPara4214">Adresse électronique :     jean.dupont@youkoulele.fr</flowPara><flowPara
         style="font-size:7.89827538px;line-height:179.99999523%;text-align:start;text-anchor:start"
         id="flowPara4218">            Mot de passe :     ×××××××××</flowPara><flowPara
         style="font-size:7.89827538px;line-height:179.99999523%;text-align:start;text-anchor:start"
         id="flowPara4216" /></flowRoot>    <flowRoot
       xml:space="preserve"
       id="flowRoot4206-3"
       style="font-style:normal;font-weight:normal;font-size:40px;line-height:125%;font-family:sans-serif;letter-spacing:0px;word-spacing:0px;fill:#000000;fill-opacity:1;stroke:none;stroke-width:1px;stroke-linecap:butt;stroke-linejoin:miter;stroke-opacity:1"
       transform="matrix(0.84463404,0,0,0.84463404,179.84272,732.8078)"><flowRegion
         id="flowRegion4208-6"><rect
           id="rect4210-7"
           width="339.41125"
           height="183.34268"
           x="-63.63961"
           y="264.3107" /></flowRegion><flowPara
         style="font-size:10px;line-height:179.99999523%;text-align:start;text-anchor:start"
         id="flowPara4216-6">Retenir le mot de passe</flowPara></flowRoot>    <flowRoot
       xml:space="preserve"
       id="flowRoot4262"
       style="font-style:normal;font-weight:normal;font-size:40px;line-height:125%;font-family:sans-serif;letter-spacing:0px;word-spacing:0px;fill:#000000;fill-opacity:1;stroke:none;stroke-width:1px;stroke-linecap:butt;stroke-linejoin:miter;stroke-opacity:1"
       transform="matrix(0.80795332,0,0,0.80795332,127.59532,693.28078)"><flowRegion
         id="flowRegion4264"><rect
           id="rect4266"
           width="416.76514"
           height="131.98152"
           x="-139.90613"
           y="355.72949" /></flowRegion><flowPara
         id="flowPara4268"
         style="font-style:italic;font-variant:normal;font-weight:normal;font-stretch:normal;font-size:10px;line-height:154.99999523%;font-family:sans-serif;-inkscape-font-specification:'sans-serif Italic'">                                   Nom d'hôte du serveur      Port      SSL        Autentification</flowPara><flowPara
         id="flowPara4270"
         style="font-size:10px;line-height:154.99999523%">Serveur entrant :   IMAP     mail.youkoulele.fr         993    SSL/TLS     Autodétection</flowPara><flowPara
         style="font-size:10px;line-height:154.99999523%"
         id="flowPara4276">Serveur sortant :   SMTP     mail.youkoulele.fr        587     SSL/TLS     Autodétection    </flowPara><flowPara
         style="font-size:10px;line-height:154.99999523%"
         id="flowPara4278">         Identifiant :                jean.dupont</flowPara><flowPara
         id="flowPara4272"
         style="font-size:10px;line-height:154.99999523%" /><flowPara
         id="flowPara4274"
         style="font-size:10px;line-height:154.99999523%" /></flowRoot>    <rect
       style="opacity:1;fill:none;fill-opacity:1;stroke:#000000;stroke-width:0.7163648;stroke-linejoin:round;stroke-miterlimit:4;stroke-dasharray:none;stroke-dashoffset:0;stroke-opacity:1"
       id="rect4280"
       width="28.961086"
       height="10.51044"
       x="86.173912"
       y="994.78503"
       ry="0" />
    <rect
       style="opacity:1;fill:none;fill-opacity:1;stroke:#000000;stroke-width:0.46660572;stroke-linejoin:round;stroke-miterlimit:4;stroke-dasharray:none;stroke-dashoffset:0;stroke-opacity:1"
       id="rect4280-2"
       width="5.2796926"
       height="10.772229"
       x="115.1321"
       y="994.6543"
       ry="0" />
    <path
       style="opacity:1;fill:#000000;fill-opacity:1;stroke:#000000;stroke-width:0.12893084;stroke-linejoin:round;stroke-miterlimit:4;stroke-dasharray:none;stroke-dashoffset:0;stroke-opacity:1"
       d="m 117.03614,999.76527 -0.82071,-1.65099 1.49706,0.0414 c 0.8234,0.0228 1.50603,0.0473 1.51698,0.054 0.0109,0.0118 -0.29342,0.7307 -0.67637,1.60891 l -0.69626,1.59701 -0.8207,-1.65091 z"
       id="path4299"
       inkscape:connector-curvature="0" />
    <rect
       style="opacity:1;fill:none;fill-opacity:1;stroke:#000000;stroke-width:0.71111834;stroke-linejoin:round;stroke-miterlimit:4;stroke-dasharray:none;stroke-dashoffset:0;stroke-opacity:1"
       id="rect4301"
       width="78.573936"
       height="10.811641"
       x="123.04955"
       y="994.75928" />
    <rect
       style="opacity:1;fill:none;fill-opacity:1;stroke:#000000;stroke-width:0.69400221;stroke-linejoin:round;stroke-miterlimit:4;stroke-dasharray:none;stroke-dashoffset:0;stroke-opacity:1"
       id="rect4301-9"
       width="78.891129"
       height="10.293926"
       x="123.05323"
       y="1007.7538" />
    <rect
       style="opacity:1;fill:none;fill-opacity:1;stroke:#000000;stroke-width:0.76017064;stroke-linejoin:round;stroke-miterlimit:4;stroke-dasharray:none;stroke-dashoffset:0;stroke-opacity:1"
       id="rect4301-1"
       width="78.581848"
       height="10.76021"
       x="122.74612"
       y="1020.2656" />
    <rect
       style="opacity:1;fill:none;fill-opacity:1;stroke:#000000;stroke-width:0.7207312;stroke-linejoin:round;stroke-miterlimit:4;stroke-dasharray:none;stroke-dashoffset:0;stroke-opacity:1"
       id="rect4280-27"
       width="18.764988"
       height="10.825871"
       x="216.87865"
       y="994.78046"
       ry="0" />
    <rect
       style="opacity:1;fill:none;fill-opacity:1;stroke:#000000;stroke-width:0.70383257;stroke-linejoin:round;stroke-miterlimit:4;stroke-dasharray:none;stroke-dashoffset:0;stroke-opacity:1"
       id="rect4280-27-0"
       width="18.781887"
       height="10.314873"
       x="216.9456"
       y="1007.7433"
       ry="0" />
    <rect
       style="opacity:1;fill:none;fill-opacity:1;stroke:#000000;stroke-width:0.46240729;stroke-linejoin:round;stroke-miterlimit:4;stroke-dasharray:none;stroke-dashoffset:0;stroke-opacity:1"
       id="rect4280-2-9"
       width="5.2838912"
       height="10.57084"
       x="235.91162"
       y="1007.6439"
       ry="0" />
    <path
       style="opacity:1;fill:#000000;fill-opacity:1;stroke:#000000;stroke-width:0.12893084;stroke-linejoin:round;stroke-miterlimit:4;stroke-dasharray:none;stroke-dashoffset:0;stroke-opacity:1"
       d="m 237.81777,1013.4564 -0.82071,-1.651 1.49706,0.042 c 0.82339,0.022 1.50603,0.047 1.51697,0.054 0.0109,0.012 -0.29342,0.7307 -0.67636,1.6089 l -0.69627,1.597 -0.82069,-1.6509 z"
       id="path4299-3"
       inkscape:connector-curvature="0" />
    <rect
       style="opacity:1;fill:none;fill-opacity:1;stroke:#000000;stroke-width:0.47159299;stroke-linejoin:round;stroke-miterlimit:4;stroke-dasharray:none;stroke-dashoffset:0;stroke-opacity:1"
       id="rect4280-2-6"
       width="5.2747054"
       height="11.014137"
       x="235.88274"
       y="994.65289"
       ry="0" />
    <path
       style="opacity:1;fill:#000000;fill-opacity:1;stroke:#000000;stroke-width:0.12893084;stroke-linejoin:round;stroke-miterlimit:4;stroke-dasharray:none;stroke-dashoffset:0;stroke-opacity:1"
       d="m 237.7843,999.84852 -0.8207,-1.65104 1.49707,0.0414 c 0.82339,0.0228 1.50602,0.0473 1.51697,0.054 0.0109,0.0118 -0.29342,0.73069 -0.67637,1.60896 l -0.69626,1.59706 -0.82071,-1.65106 z"
       id="path4299-0"
       inkscape:connector-curvature="0" />
    <rect
       style="opacity:1;fill:none;fill-opacity:1;stroke:#000000;stroke-width:0.72663528;stroke-linejoin:round;stroke-miterlimit:4;stroke-dasharray:none;stroke-dashoffset:0;stroke-opacity:1"
       id="rect4280-27-6"
       width="35.80587"
       height="10.708856"
       x="244.59462"
       y="994.84039"
       ry="0" />
    <rect
       style="opacity:1;fill:none;fill-opacity:1;stroke:#000000;stroke-width:0.7167663;stroke-linejoin:round;stroke-miterlimit:4;stroke-dasharray:none;stroke-dashoffset:0;stroke-opacity:1"
       id="rect4280-27-6-2"
       width="35.815739"
       height="10.417069"
       x="244.85634"
       y="1007.7587"
       ry="0" />
    <rect
       style="opacity:1;fill:none;fill-opacity:1;stroke:#000000;stroke-width:0.46203154;stroke-linejoin:round;stroke-miterlimit:4;stroke-dasharray:none;stroke-dashoffset:0;stroke-opacity:1"
       id="rect4280-2-9-6"
       width="5.2842669"
       height="10.552917"
       x="280.91907"
       y="1007.6795"
       ry="0" />
    <path
       style="opacity:1;fill:#000000;fill-opacity:1;stroke:#000000;stroke-width:0.12893084;stroke-linejoin:round;stroke-miterlimit:4;stroke-dasharray:none;stroke-dashoffset:0;stroke-opacity:1"
       d="m 282.82536,1013.4567 -0.8207,-1.6511 1.49707,0.042 c 0.82338,0.022 1.50603,0.047 1.51696,0.054 0.0109,0.012 -0.29342,0.7307 -0.67636,1.609 l -0.69626,1.597 -0.82071,-1.651 z"
       id="path4299-3-1"
       inkscape:connector-curvature="0" />
    <rect
       style="opacity:1;fill:none;fill-opacity:1;stroke:#000000;stroke-width:0.47273833;stroke-linejoin:round;stroke-miterlimit:4;stroke-dasharray:none;stroke-dashoffset:0;stroke-opacity:1"
       id="rect4280-2-9-8"
       width="5.2735605"
       height="11.070106"
       x="280.4978"
       y="994.68646"
       ry="0" />
    <path
       style="opacity:1;fill:#000000;fill-opacity:1;stroke:#000000;stroke-width:0.12736465;stroke-linejoin:round;stroke-miterlimit:4;stroke-dasharray:none;stroke-dashoffset:0;stroke-opacity:1"
       d="m 282.39791,1000.2442 -0.82165,-1.60929 1.49879,0.0406 c 0.82435,0.022 1.50778,0.0456 1.51872,0.0532 0.0109,0.0118 -0.29375,0.7122 -0.67713,1.56829 l -0.69707,1.5567 -0.82166,-1.6092 z"
       id="path4299-3-7"
       inkscape:connector-curvature="0" />
    <rect
       style="opacity:1;fill:none;fill-opacity:1;stroke:#000000;stroke-width:0.77666324;stroke-linejoin:round;stroke-miterlimit:4;stroke-dasharray:none;stroke-dashoffset:0;stroke-opacity:1"
       id="rect4280-27-6-2-9"
       width="61.982094"
       height="10.264021"
       x="288.87912"
       y="1007.8506"
       ry="0" />
    <rect
       style="opacity:1;fill:none;fill-opacity:1;stroke:#000000;stroke-width:0.78751963;stroke-linejoin:round;stroke-miterlimit:4;stroke-dasharray:none;stroke-dashoffset:0;stroke-opacity:1"
       id="rect4280-27-6-2-9-2"
       width="61.971233"
       height="10.55482"
       x="288.71313"
       y="994.8407"
       ry="0" />
    <rect
       style="opacity:1;fill:none;fill-opacity:1;stroke:#000000;stroke-width:0.76017064;stroke-linejoin:round;stroke-miterlimit:4;stroke-dasharray:none;stroke-dashoffset:0;stroke-opacity:1"
       id="rect4301-9-0"
       width="78.891129"
       height="10.293926"
       x="116.56872"
       y="912.16986" />
    <rect
       style="opacity:1;fill:none;fill-opacity:1;stroke:#000000;stroke-width:0.76017064;stroke-linejoin:round;stroke-miterlimit:4;stroke-dasharray:none;stroke-dashoffset:0;stroke-opacity:1"
       id="rect4301-9-0-2"
       width="118.09647"
       height="10.144981"
       x="116.64318"
       y="927.56775" />
    <rect
       style="opacity:1;fill:none;fill-opacity:1;stroke:#000000;stroke-width:0.76017064;stroke-linejoin:round;stroke-miterlimit:4;stroke-dasharray:none;stroke-dashoffset:0;stroke-opacity:1"
       id="rect4301-9-0-3"
       width="78.891129"
       height="10.293926"
       x="116.35542"
       y="941.92548" />
    <rect
       style="opacity:1;fill:none;fill-opacity:1;stroke:#000000;stroke-width:0.60660261;stroke-linejoin:round;stroke-miterlimit:4;stroke-dasharray:none;stroke-dashoffset:0;stroke-opacity:1"
       id="rect4301-9-0-3-7"
       width="6.193563"
       height="6.221282"
       x="116.31564"
       y="962.04944" />
    <path
       style="fill:none;fill-rule:evenodd;stroke:#000000;stroke-width:0.84463406px;stroke-linecap:butt;stroke-linejoin:miter;stroke-opacity:1"
       d="m 116.51169,962.27555 6.0331,6.10852"
       id="path4526"
       inkscape:connector-curvature="0" />
    <path
       style="fill:none;fill-rule:evenodd;stroke:#000000;stroke-width:0.84463406px;stroke-linecap:butt;stroke-linejoin:miter;stroke-opacity:1"
       d="m 116.43628,968.15781 5.88227,-5.95767"
       id="path4528"
       inkscape:connector-curvature="0" />
  </g>
</svg>
